Depot Name,Location,x,y,commenceTime
DEPOT,SE13 7TW,51.465336,-0.021253,20140610T090000


Visit Name,Location,x,y,windowStart,windowEnd,visitLength,Transport Mode
v17,SE15 6TE,51.480644,-0.067814,20140610T090000,20140610T130000,30.0,Public Transport
Route Name,Route0
Time,114.0
Emissions,1.416779466652328
Distance,8.849407445523795
Cost,36.13333333333333

Visit Name,Location,x,y,windowStart,windowEnd,visitLength,Transport Mode
v11,SE16 6AU,51.500401,-0.043407,20140610T090000,20140610T130000,30.0,Public Transport
Route Name,Route1
Time,127.0
Emissions,0.9538537091817472
Distance,11.336712762386515
Cost,38.13333333333333

Visit Name,Location,x,y,windowStart,windowEnd,visitLength,Transport Mode
v13,SE6 1ES,51.439774,-0.0104,20140610T090000,20140610T130000,30.0,Public Transport
Route Name,Route2
Time,123.0
Emissions,1.370002332263615
Distance,9.00623661827261
Cost,37.13333333333333

Visit Name,Location,x,y,windowStart,windowEnd,visitLength,Transport Mode
v7,SE22 8RP,51.457684,-0.077003,20140610T090000,20140610T130000,30.0,Public Transport
Route Name,Route3
Time,136.0
Emissions,1.8302687667546587
Distance,10.945565572643648
Cost,39.46666666666667

Visit Name,Location,x,y,windowStart,windowEnd,visitLength,Transport Mode
v53,SE11 6PT,51.492973,-0.115869,20140610T130000,20140610T170000,30.0,Public Transport
v14,SE1 4QA,51.498117,-0.083716,20140610T090000,20140610T130000,30.0,Public Transport
Route Name,Route4
Time,209.0
Emissions,3.805834470026232
Distance,18.201597497254596
Cost,64.8

Visit Name,Location,x,y,windowStart,windowEnd,visitLength,Transport Mode
v50,SE15 4DA,51.462937,-0.077042,20140610T130000,20140610T170000,30.0,Public Transport
v22,SE22 8HA,51.454919,-0.076731,20140610T090000,20140610T130000,30.0,Public Transport
Route Name,Route5
Time,179.0
Emissions,2.244863613759448
Distance,12.413878277969758
Cost,52.8

Visit Name,Location,x,y,windowStart,windowEnd,visitLength,Transport Mode
v54,SE6 3TJ,51.434954,-0.023113,20140610T130000,20140610T170000,30.0,Public Transport
v23,SE14 6EB,51.481142,-0.035014,20140610T090000,20140610T130000,30.0,Public Transport
Route Name,Route6
Time,194.0
Emissions,3.2826081532628493
Distance,14.191305351849252
Cost,67.13333333333333

Visit Name,Location,x,y,windowStart,windowEnd,visitLength,Transport Mode
v31,SE12 8BP,51.451997,0.026286,20140610T130000,20140610T170000,30.0,Public Transport
v2,SE9 5TG,51.44948,0.050483,20140610T090000,20140610T130000,30.0,Public Transport
Route Name,Route7
Time,168.0
Emissions,1.744804390774902
Distance,12.197379509807956
Cost,51.46666666666667

Visit Name,Location,x,y,windowStart,windowEnd,visitLength,Transport Mode
v25,SE16 7PF,51.496001,-0.039446,20140610T090000,20140610T130000,30.0,Public Transport
v8,SE16 5QU,51.504227,-0.048517,20140610T090000,20140610T130000,30.0,Public Transport
Route Name,Route8
Time,175.0
Emissions,0.82277862868021
Distance,13.75911935342787
Cost,54.133333333333326

Visit Name,Location,x,y,windowStart,windowEnd,visitLength,Transport Mode
v34,SE5 8PF,51.471194,-0.084326,20140610T130000,20140610T170000,30.0,Public Transport
v15,SE15 5SZ,51.475094,-0.066594,20140610T090000,20140610T130000,30.0,Public Transport
Route Name,Route9
Time,168.0
Emissions,2.47103107471899
Distance,11.188294097089504
Cost,56.46666666666667

Visit Name,Location,x,y,windowStart,windowEnd,visitLength,Transport Mode
v33,SE2 0EF,51.498497,0.10445,20140610T130000,20140610T170000,30.0,Public Transport
v4,SE1 1GE,51.503839,-0.092121,20140610T090000,20140610T130000,30.0,Public Transport
Route Name,Route10
Time,229.0
Emissions,11.750379964042839
Distance,35.788360738230985
Cost,73.13333333333333

Visit Name,Location,x,y,windowStart,windowEnd,visitLength,Transport Mode
v1,SE23 3NN,51.44797,-0.049132,20140610T090000,20140610T130000,30.0,Public Transport
v5,SE8 4HZ,51.471391,-0.024115,20140610T090000,20140610T130000,30.0,Public Transport
Route Name,Route11
Time,152.0
Emissions,0.8187949239719271
Distance,7.994861222573455
Cost,57.8

Visit Name,Location,x,y,windowStart,windowEnd,visitLength,Transport Mode
v40,SE12 9QB,51.435783,0.026763,20140610T130000,20140610T170000,30.0,Public Transport
v26,SE12 9ET,51.44304,0.020551,20140610T090000,20140610T130000,30.0,Public Transport
v18,SE12 9TZ,51.432583,0.027743,20140610T090000,20140610T130000,30.0,Public Transport
Route Name,Route12
Time,233.0
Emissions,2.789855356542962
Distance,15.98198609624155
Cost,73.46666666666667

Visit Name,Location,x,y,windowStart,windowEnd,visitLength,Transport Mode
v44,SE23 3NA,51.445051,-0.052005,20140610T130000,20140610T170000,30.0,Public Transport
v9,SE19 3DX,51.414883,-0.094835,20140610T090000,20140610T130000,30.0,Public Transport
v30,SE19 2QJ,51.411828,-0.084536,20140610T090000,20140610T130000,30.0,Public Transport
Route Name,Route13
Time,272.0
Emissions,2.7770132511930568
Distance,21.074027195217305
Cost,81.8

Visit Name,Location,x,y,windowStart,windowEnd,visitLength,Transport Mode
v27,SE15 4HA,51.463758,-0.0668,20140610T090000,20140610T130000,30.0,Public Transport
v10,SE24 0EF,51.454033,-0.104576,20140610T090000,20140610T130000,30.0,Public Transport
v24,SE25 4TY,51.401113,-0.067804,20140610T090000,20140610T130000,30.0,Public Transport
Route Name,Route14
Time,287.0
Emissions,4.272901150418017
Distance,26.850006192326276
Cost,90.13333333333334

Visit Name,Location,x,y,windowStart,windowEnd,visitLength,Transport Mode
v36,SE26 6HP,51.426178,-0.061956,20140610T130000,20140610T170000,30.0,Public Transport
v45,SE25 4DQ,51.403127,-0.072679,20140610T130000,20140610T170000,30.0,Public Transport
v46,SE21 8BX,51.431052,-0.089875,20140610T130000,20140610T170000,30.0,Public Transport
Route Name,Route15
Time,315.0
Emissions,2.72755425856753
Distance,23.121511915714382
Cost,91.8

Visit Name,Location,x,y,windowStart,windowEnd,visitLength,Transport Mode
v43,SE12 8SS,51.455336,0.012558,20140610T130000,20140610T170000,30.0,Public Transport
v12,SE9 5DL,51.450285,0.055917,20140610T090000,20140610T130000,30.0,Public Transport
v29,SE9 2LL,51.446535,0.08289,20140610T090000,20140610T130000,30.0,Public Transport
v28,SE9 5QR,51.44146,0.050412,20140610T090000,20140610T130000,30.0,Public Transport
Route Name,Route16
Time,295.0
Emissions,3.908650676962333
Distance,19.730725956205667
Cost,92.8

Visit Name,Location,x,y,windowStart,windowEnd,visitLength,Transport Mode
v48,SE3 7DF,51.475516,0.022994,20140610T130000,20140610T170000,30.0,Public Transport
v32,SE1 2SS,51.506106,-0.087199,20140610T130000,20140610T170000,30.0,Public Transport
v55,W1H 7JB,51.514839,-0.158666,20140610T130000,20140610T170000,30.0,Public Transport
v58,W1T 3QG,51.51701,-0.137794,20140610T130000,20140610T170000,30.0,Public Transport
v35,SE17 1TS,51.490383,-0.084199,20140610T130000,20140610T170000,30.0,Public Transport
Route Name,Route17
Time,413.0
Emissions,9.82396580053223
Distance,37.045484712330015
Cost,133.46666666666667

Visit Name,Location,x,y,windowStart,windowEnd,visitLength,Transport Mode
v20,SE25 5PD,51.38934,-0.090176,20140610T090000,20140610T130000,30.0,Car
v39,SE26 6BP,51.424959,-0.064942,20140610T130000,20140610T170000,30.0,Public Transport
v47,SE25 4XL,51.399524,-0.07999,20140610T130000,20140610T170000,30.0,Public Transport
v51,SE4 1YB,51.465709,-0.026866,20140610T130000,20140610T170000,30.0,Public Transport
Returning to Car,SE25 5PD,51.38934,-0.090176,20140610T090000,20140610T090000,0.0,Public Transport
Route Name,Route18
Time,403.1866142149304
Emissions,17.613324456306977
Distance,55.12914488871779
Cost,131.0505670273753

Visit Name,Location,x,y,windowStart,windowEnd,visitLength,Transport Mode
v52,SE12 0JQ,51.441768,0.01871,20140610T130000,20140610T170000,30.0,Car
v37,SE18 7BZ,51.490921,0.071372,20140610T130000,20140610T170000,30.0,Public Transport
v38,SE28 8LW,51.508975,0.117888,20140610T130000,20140610T170000,30.0,Public Transport
v42,SE7 8NE,51.491891,0.035502,20140610T130000,20140610T170000,30.0,Public Transport
Returning to Car,SE12 0JQ,51.441768,0.01871,20140610T090000,20140610T090000,0.0,Public Transport
Route Name,Route19
Time,421.7831247888205
Emissions,12.6319645737393
Distance,39.553962254837344
Cost,138.97684858874544

Visit Name,Location,x,y,windowStart,windowEnd,visitLength,Transport Mode
v21,SE4 1QR,51.463509,-0.035628,20140610T090000,20140610T130000,30.0,Car
v3,SE20 8LB,51.411851,-0.059126,20140610T090000,20140610T130000,30.0,Public Transport
v6,SE19 3NF,51.422435,-0.105294,20140610T090000,20140610T130000,30.0,Public Transport
v16,SE22 8AD,51.464181,-0.082748,20140610T090000,20140610T130000,30.0,Public Transport
v56,W3 7TB,51.558951,-0.19246,20140610T130000,20140610T170000,30.0,Public Transport
Returning to Car,SE4 1QR,51.463509,-0.035628,20140610T090000,20140610T090000,0.0,Public Transport
Route Name,Route20
Time,458.6372684547847
Emissions,23.44220435416043
Distance,55.0605217300203
Cost,158.16757463840582

Visit Name,Location,x,y,windowStart,windowEnd,visitLength,Transport Mode
v19,SE17 3RD,51.487667,-0.104147,20140610T090000,20140610T130000,30.0,Public Transport
v60,W2 1EB,51.566901,-0.209532,20140610T130000,20140610T170000,30.0,Public Transport
v59,W1J 8PD,51.507805,-0.144827,20140610T130000,20140610T170000,30.0,Public Transport
v57,W1J 5HQ,51.507122,-0.146599,20140610T130000,20140610T170000,30.0,Public Transport
v49,SE1 6TJ,51.494747,-0.098768,20140610T130000,20140610T170000,30.0,Public Transport
v41,SE14 5TJ,51.469307,-0.046235,20140610T130000,20140610T170000,30.0,Public Transport
Route Name,Route21
Time,427.0
Emissions,10.024944886268877
Distance,45.853591799670234
Cost,144.13333333333335

