Depot Name,Location,x,y,commenceTime
DEPOT,SE13 7TW,51.465336,-0.021253,20140610T090000


Visit Name,Location,x,y,windowStart,windowEnd,visitLength,Transport Mode
v21,SE26 6BP,51.424959,-0.064942,20140610T090000,20140610T130000,30.0,Public Transport
v16,SE19 2QJ,51.411828,-0.084536,20140610T130000,20140610T170000,30.0,Public Transport
Route Name,Route0
Time,222.0
Emissions,1.9821198650387024
Distance,19.88085026938861
Cost,65.13333333333334

Visit Name,Location,x,y,windowStart,windowEnd,visitLength,Transport Mode
v26,SE25 4XL,51.399524,-0.07999,20140610T130000,20140610T150000,30.0,Public Transport
v11,SE25 5PD,51.38934,-0.090176,20140610T160000,20140610T170000,30.0,Public Transport
Route Name,Route1
Time,186.0
Emissions,4.633907625625583
Distance,24.454475569681925
Cost,54.46666666666667

Visit Name,Location,x,y,windowStart,windowEnd,visitLength,Transport Mode
v64,W5 5SA,51.51217,-0.309259,20140610T090000,20140610T100000,30.0,Public Transport
v14,SE9 5QR,51.44146,0.050412,20140610T110000,20140610T130000,30.0,Public Transport
Route Name,Route2
Time,277.0
Emissions,23.4825114376432
Distance,61.440106758714954
Cost,86.8

Visit Name,Location,x,y,windowStart,windowEnd,visitLength,Transport Mode
v49,W1S 2HU,51.512255,-0.141361,20140610T130000,20140610T170000,30.0,Car
v46,SW1P 4PX,51.489465,-0.130389,20140610T140000,20140610T150000,30.0,Car
Route Name,Route3
Time,122.95771988277957
Emissions,13.274779505592651
Distance,24.868299353698134
Cost,37.628287277646955

Visit Name,Location,x,y,windowStart,windowEnd,visitLength,Transport Mode
v36,SW1H 9HP,51.501001,-0.130911,20140610T090000,20140610T130000,30.0,Public Transport
v10,SE17 3RD,51.487667,-0.104147,20140610T130000,20140610T170000,30.0,Public Transport
Route Name,Route4
Time,214.0
Emissions,5.862340359689792
Distance,21.41620203545743
Cost,64.8

Visit Name,Location,x,y,windowStart,windowEnd,visitLength,Transport Mode
v32,W1T 3QG,51.51701,-0.137794,20140610T090000,20140610T110000,30.0,Public Transport
v4,SE1 1GE,51.503839,-0.092121,20140610T100000,20140610T110000,30.0,Public Transport
Route Name,Route5
Time,200.0
Emissions,6.6056265357942845
Distance,23.963818521728935
Cost,63.46666666666667

Visit Name,Location,x,y,windowStart,windowEnd,visitLength,Transport Mode
v50,SE12 8PB,51.454711,0.005953,20140610T090000,20140610T170000,30.0,Public Transport
v15,SE9 2LL,51.446535,0.08289,20140610T120000,20140610T130000,30.0,Public Transport
v23,SE12 8SS,51.455336,0.012558,20140610T090000,20140610T170000,30.0,Public Transport
Route Name,Route6
Time,266.0
Emissions,3.9610238166615903
Distance,18.862159426559177
Cost,89.13333333333333

Visit Name,Location,x,y,windowStart,windowEnd,visitLength,Transport Mode
v52,E6 2NS,51.535175,0.062667,20140610T160000,20140610T170000,30.0,Car
v2,SE9 5TG,51.44948,0.050483,20140610T090000,20140610T170000,30.0,Public Transport
Returning to Car,E6 2NS,51.535175,0.062667,20140610T090000,20140610T090000,0.0,Public Transport
Route Name,Route7
Time,330.7754181949263
Emissions,22.2429190970996
Distance,57.83140032351296
Cost,102.3954780618874

Visit Name,Location,x,y,windowStart,windowEnd,visitLength,Transport Mode
v39,E7 0AF,51.55368,0.019868,20140610T090000,20140610T170000,30.0,Car
v38,E6 9SN,51.532761,0.055219,20140610T150000,20140610T170000,30.0,Car
v18,SE1 2SS,51.506106,-0.087199,20140610T130000,20140610T170000,30.0,Public Transport
Returning to Car,E6 9SN,51.532761,0.055219,20140610T090000,20140610T090000,0.0,Public Transport
Route Name,Route8
Time,379.57304541173653
Emissions,27.662130803425335
Distance,54.57361234869836
Cost,111.38007513604178

Visit Name,Location,x,y,windowStart,windowEnd,visitLength,Transport Mode
v62,NW4 3UA,51.575986,-0.233983,20140610T090000,20140610T130000,30.0,Car
v19,SE17 1TS,51.490383,-0.084199,20140610T150000,20140610T160000,30.0,Public Transport
v35,SW1H 9EU,51.499117,-0.136824,20140610T150000,20140610T170000,30.0,Public Transport
Returning to Car,NW4 3UA,51.575986,-0.233983,20140610T090000,20140610T090000,0.0,Public Transport
Route Name,Route9
Time,320.7696245557136
Emissions,100.91728037946265
Distance,78.36165913311979
Cost,108.01403542973694

Visit Name,Location,x,y,windowStart,windowEnd,visitLength,Transport Mode
v44,NW4 2DH,51.586223,-0.221172,20140610T150000,20140610T170000,30.0,Car
v13,SE12 9ET,51.44304,0.020551,20140610T090000,20140610T170000,30.0,Public Transport
Returning to Car,NW4 2DH,51.586223,-0.221172,20140610T090000,20140610T090000,0.0,Public Transport
Route Name,Route10
Time,450.6125907310495
Emissions,35.555126700326255
Distance,102.48032750596312
Cost,139.40823451219651

Visit Name,Location,x,y,windowStart,windowEnd,visitLength,Transport Mode
v45,SW1P 4BB,51.492146,-0.131072,20140610T160000,20140610T170000,30.0,Car
v25,SE21 8BX,51.431052,-0.089875,20140610T130000,20140610T170000,30.0,Public Transport
v6,SE19 3DX,51.414883,-0.094835,20140610T090000,20140610T170000,30.0,Public Transport
Returning to Car,SW1P 4BB,51.492146,-0.131072,20140610T090000,20140610T090000,0.0,Public Transport
Route Name,Route11
Time,393.4995563586883
Emissions,16.072750074843068
Distance,42.7900786563403
Cost,123.59014253853466

Visit Name,Location,x,y,windowStart,windowEnd,visitLength,Transport Mode
v24,SE25 4DQ,51.403127,-0.072679,20140610T090000,20140610T110000,30.0,Car
v3,SE20 8LB,51.411851,-0.059126,20140610T130000,20140610T170000,30.0,Public Transport
v61,NW4 3SA,51.578178,-0.232051,20140610T090000,20140610T170000,30.0,Public Transport
Returning to Car,SE25 4DQ,51.403127,-0.072679,20140610T090000,20140610T090000,0.0,Public Transport
Route Name,Route12
Time,381.1650041809646
Emissions,29.349064155345847
Distance,76.94464042679145
Cost,124.16992812182511

Visit Name,Location,x,y,windowStart,windowEnd,visitLength,Transport Mode
v28,SE12 0JQ,51.441768,0.01871,20140610T090000,20140610T170000,30.0,Car
v22,SE12 9QB,51.435783,0.026763,20140610T090000,20140610T170000,30.0,Public Transport
v9,SE12 9TZ,51.432583,0.027743,20140610T090000,20140610T170000,30.0,Public Transport
Returning to Car,SE12 0JQ,51.441768,0.01871,20140610T090000,20140610T090000,0.0,Public Transport
Route Name,Route13
Time,199.78312478882052
Emissions,3.01845080805831
Distance,12.962808879139725
Cost,64.97684858874544

Visit Name,Location,x,y,windowStart,windowEnd,visitLength,Transport Mode
v60,NW4 3RD,51.578629,-0.219693,20140610T130000,20140610T150000,30.0,Car
v57,NW4 2DT,51.586693,-0.220157,20140610T090000,20140610T170000,30.0,Car
v59,NW4 3DH,51.580454,-0.227401,20140610T100000,20140610T110000,30.0,Public Transport
v58,NW4 3DE,51.581401,-0.228173,20140610T090000,20140610T170000,30.0,Public Transport
Returning to Car,NW4 2DT,51.586693,-0.220157,20140610T090000,20140610T090000,0.0,Public Transport
Route Name,Route14
Time,296.6449801943732
Emissions,13.50530847212836
Distance,48.604214345878404
Cost,92.55768090489545

Visit Name,Location,x,y,windowStart,windowEnd,visitLength,Transport Mode
v42,IG11 0RJ,51.5312,0.120679,20140610T130000,20140610T150000,30.0,Car
v41,IG11 0RD,51.529397,0.108902,20140610T100000,20140610T110000,30.0,Car
v56,E6 2NF,51.536121,0.060503,20140610T090000,20140610T130000,30.0,Car
v17,SE12 8BP,51.451997,0.026286,20140610T090000,20140610T130000,30.0,Public Transport
Returning to Car,E6 2NF,51.536121,0.060503,20140610T090000,20140610T090000,0.0,Public Transport
Route Name,Route15
Time,418.7370323063694
Emissions,30.097218256916204
Distance,65.49592246123521
Cost,136.47126087420193

Visit Name,Location,x,y,windowStart,windowEnd,visitLength,Transport Mode
v47,SW1V 1NP,51.492683,-0.144462,20140610T150000,20140610T170000,30.0,Car
v54,E6 2PX,51.531854,0.064319,20140610T090000,20140610T130000,30.0,Car
v48,SE13 6TZ,51.446221,-0.004004,20140610T090000,20140610T170000,30.0,Public Transport
v12,SE25 4TY,51.401113,-0.067804,20140610T090000,20140610T130000,30.0,Public Transport
Returning to Car,E6 2PX,51.531854,0.064319,20140610T090000,20140610T090000,0.0,Public Transport
Route Name,Route16
Time,511.2513006661999
Emissions,35.62600574587347
Distance,89.32761495567945
Cost,167.452816568204

Visit Name,Location,x,y,windowStart,windowEnd,visitLength,Transport Mode
v51,E6 9ST,51.532761,0.055219,20140610T090000,20140610T130000,30.0,Car
v40,E7 8DT,51.544112,0.034429,20140610T130000,20140610T140000,30.0,Car
v55,E7 8EA,51.546847,0.036411,20140610T090000,20140610T170000,30.0,Car
v53,E6 9SP,51.532761,0.055219,20140610T090000,20140610T170000,30.0,Car
v37,E6 6AQ,51.525592,0.063488,20140610T130000,20140610T170000,30.0,Car
Route Name,Route17
Time,233.68711194946746
Emissions,11.343902486597358
Distance,33.056409220039924
Cost,73.45495390736579

Visit Name,Location,x,y,windowStart,windowEnd,visitLength,Transport Mode
v63,W5 5RA,51.508035,-0.304973,20140610T120000,20140610T130000,30.0,Car
v5,SE19 3NF,51.422435,-0.105294,20140610T090000,20140610T130000,30.0,Car
v20,SE26 6HP,51.426178,-0.061956,20140610T090000,20140610T110000,30.0,Public Transport
v43,W1U 4ED,51.518776,-0.153376,20140610T090000,20140610T130000,30.0,Public Transport
v7,SE9 5DL,51.450285,0.055917,20140610T090000,20140610T170000,30.0,Public Transport
Returning to Car,SE19 3NF,51.422435,-0.105294,20140610T090000,20140610T090000,0.0,Public Transport
Route Name,Route18
Time,624.3876718255781
Emissions,48.49461778381274
Distance,107.34048709191252
Cost,214.9581549347013

Visit Name,Location,x,y,windowStart,windowEnd,visitLength,Transport Mode
v8,SE1 4QA,51.498117,-0.083716,20140610T090000,20140610T100000,30.0,Public Transport
v29,SE11 6PT,51.492973,-0.115869,20140610T090000,20140610T100000,30.0,Public Transport
v1,W5 5TL,51.511651,-0.312549,20140610T110000,20140610T120000,30.0,Public Transport
v34,W5 5RN,51.50431,-0.304247,20140610T090000,20140610T130000,30.0,Public Transport
v31,W1J 5HQ,51.507122,-0.146599,20140610T090000,20140610T170000,30.0,Public Transport
v33,W1J 8PD,51.507805,-0.144827,20140610T130000,20140610T150000,30.0,Public Transport
v30,W1H 7JB,51.514839,-0.158666,20140610T090000,20140610T170000,30.0,Public Transport
v27,SE1 6TJ,51.494747,-0.098768,20140610T090000,20140610T170000,30.0,Public Transport
Route Name,Route19
Time,593.0
Emissions,18.645075798658226
Distance,59.143591743739385
Cost,191.13333333333333

