Depot Name,Location,x,y,commenceTime
DEPOT,HA1 9GF,51.585237,-0.329686,20140610T090000


Visit Name,Location,x,y,windowStart,windowEnd,visitLength,Transport Mode
v62,SW1H 9EU,51.499117,-0.136824,20140610T130000,20140610T170000,30.0,Public Transport
v25,SE16 7PF,51.496001,-0.039446,20140610T090000,20140610T130000,30.0,Public Transport
Route Name,Route0
Time,254.0
Emissions,12.313541109265227
Distance,58.68719910181974
Cost,72.46666666666667

Visit Name,Location,x,y,windowStart,windowEnd,visitLength,Transport Mode
v57,W1J 5HQ,51.507122,-0.146599,20140610T090000,20140610T130000,30.0,Public Transport
v8,SE16 5QU,51.504227,-0.048517,20140610T130000,20140610T170000,30.0,Public Transport
Route Name,Route1
Time,242.0
Emissions,11.52439093537434
Distance,57.465528958379174
Cost,68.13333333333334

Visit Name,Location,x,y,windowStart,windowEnd,visitLength,Transport Mode
v31,SE12 8BP,51.451997,0.026286,20140610T090000,20140610T130000,30.0,Public Transport
v2,SE9 5TG,51.44948,0.050483,20140610T130000,20140610T170000,30.0,Public Transport
Route Name,Route2
Time,272.0
Emissions,15.403523724928789
Distance,73.61397711079383
Cost,70.46666666666667

Visit Name,Location,x,y,windowStart,windowEnd,visitLength,Transport Mode
v32,SE1 2SS,51.506106,-0.087199,20140610T130000,20140610T170000,30.0,Public Transport
v1,SE23 3NN,51.44797,-0.049132,20140610T090000,20140610T130000,30.0,Public Transport
Route Name,Route3
Time,245.0
Emissions,13.050846660506005
Distance,66.09216720131522
Cost,67.13333333333333

Visit Name,Location,x,y,windowStart,windowEnd,visitLength,Transport Mode
v65,SW18 9SL,51.457384,-0.190862,20140610T090000,20140610T130000,30.0,Car
v102,CR4 3QX,51.407037,-0.178255,20140610T130000,20140610T170000,30.0,Car
v70,SW17 9AG,51.423335,-0.165208,20140610T130000,20140610T170000,30.0,Car
Route Name,Route4
Time,232.79000295721858
Emissions,20.274208699450583
Distance,56.40205116810179
Cost,66.84634400142957

Visit Name,Location,x,y,windowStart,windowEnd,visitLength,Transport Mode
v47,SE25 4XL,51.399524,-0.07999,20140610T090000,20140610T130000,30.0,Car
v20,SE25 5PD,51.38934,-0.090176,20140610T130000,20140610T170000,30.0,Public Transport
Returning to Car,SE25 4XL,51.399524,-0.07999,20140610T090000,20140610T090000,0.0,Public Transport
Route Name,Route5
Time,268.0023068901752
Emissions,17.458522912959438
Distance,66.38537071725884
Cost,81.87841211207567

Visit Name,Location,x,y,windowStart,windowEnd,visitLength,Transport Mode
v56,W3 7TB,51.558951,-0.19246,20140610T130000,20140610T170000,30.0,Car
v19,SE17 3RD,51.487667,-0.104147,20140610T090000,20140610T130000,30.0,Public Transport
Returning to Car,W3 7TB,51.558951,-0.19246,20140610T090000,20140610T090000,0.0,Public Transport
Route Name,Route6
Time,275.66651680037086
Emissions,17.921314910383536
Distance,51.79422294229399
Cost,86.54358547308013

Visit Name,Location,x,y,windowStart,windowEnd,visitLength,Transport Mode
v82,SE15 2UJ,51.475983,-0.062179,20140610T130000,20140610T170000,30.0,Public Transport
v27,SE15 4HA,51.463758,-0.0668,20140610T090000,20140610T130000,30.0,Public Transport
v5,SE8 4HZ,51.471391,-0.024115,20140610T090000,20140610T130000,30.0,Public Transport
Route Name,Route7
Time,312.0
Emissions,14.43033163514372
Distance,64.58558347272529
Cost,90.13333333333334

Visit Name,Location,x,y,windowStart,windowEnd,visitLength,Transport Mode
v60,W2 1EB,51.566901,-0.209532,20140610T130000,20140610T170000,30.0,Car
v17,SE15 6TE,51.480644,-0.067814,20140610T090000,20140610T130000,30.0,Public Transport
v49,SE1 6TJ,51.494747,-0.098768,20140610T090000,20140610T130000,30.0,Public Transport
Returning to Car,W2 1EB,51.566901,-0.209532,20140610T090000,20140610T090000,0.0,Public Transport
Route Name,Route8
Time,305.48006733205693
Emissions,12.84688481197221
Distance,56.25246505812123
Cost,100.58586215338093

Visit Name,Location,x,y,windowStart,windowEnd,visitLength,Transport Mode
v74,N1 9JP,51.651933,-0.077091,20140610T130000,20140610T170000,30.0,Public Transport
v15,SE15 5SZ,51.475094,-0.066594,20140610T090000,20140610T130000,30.0,Public Transport
v35,SE17 1TS,51.490383,-0.084199,20140610T090000,20140610T130000,30.0,Public Transport
v55,W1H 7JB,51.514839,-0.158666,20140610T090000,20140610T130000,30.0,Public Transport
Route Name,Route9
Time,387.0
Emissions,14.118169639442467
Distance,76.93640285213864
Cost,122.46666666666665

Visit Name,Location,x,y,windowStart,windowEnd,visitLength,Transport Mode
v53,SE11 6PT,51.492973,-0.115869,20140610T090000,20140610T130000,30.0,Public Transport
v34,SE5 8PF,51.471194,-0.084326,20140610T130000,20140610T170000,30.0,Public Transport
v50,SE15 4DA,51.462937,-0.077042,20140610T130000,20140610T170000,30.0,Public Transport
v22,SE22 8HA,51.454919,-0.076731,20140610T130000,20140610T170000,30.0,Public Transport
Route Name,Route10
Time,379.0
Emissions,10.766801359095705
Distance,59.12425263133393
Cost,106.46666666666667

Visit Name,Location,x,y,windowStart,windowEnd,visitLength,Transport Mode
v91,NW4 2DH,51.586223,-0.221172,20140610T090000,20140610T130000,30.0,Car
v37,SE18 7BZ,51.490921,0.071372,20140610T090000,20140610T130000,30.0,Car
v33,SE2 0EF,51.498497,0.10445,20140610T090000,20140610T130000,30.0,Car
v80,IG11 0RD,51.529397,0.108902,20140610T130000,20140610T170000,30.0,Car
v88,E18 2JF,51.593824,0.01827,20140610T130000,20140610T170000,30.0,Car
Route Name,Route11
Time,417.55527337947404
Emissions,34.03170745979205
Distance,105.68433298489308
Cost,138.6937048398124

Visit Name,Location,x,y,windowStart,windowEnd,visitLength,Transport Mode
v76,E7 8DT,51.544112,0.034429,20140610T130000,20140610T170000,30.0,Car
v73,E6 9SN,51.532761,0.055219,20140610T090000,20140610T130000,30.0,Car
v75,E7 0AF,51.55368,0.019868,20140610T090000,20140610T130000,30.0,Public Transport
v14,SE1 4QA,51.498117,-0.083716,20140610T130000,20140610T170000,30.0,Public Transport
Returning to Car,E6 9SN,51.532761,0.055219,20140610T090000,20140610T090000,0.0,Public Transport
Route Name,Route12
Time,508.7053647402813
Emissions,28.681087620145522
Distance,104.72863258074956
Cost,164.490285398047

Visit Name,Location,x,y,windowStart,windowEnd,visitLength,Transport Mode
v103,W3 7JU,51.508973,-0.250654,20140610T090000,20140610T130000,30.0,Public Transport
v72,W6 9RH,51.535984,-0.194754,20140610T130000,20140610T170000,30.0,Public Transport
v66,SW12 8LH,51.445845,-0.159572,20140610T130000,20140610T170000,30.0,Public Transport
v10,SE24 0EF,51.454033,-0.104576,20140610T130000,20140610T170000,30.0,Public Transport
v98,SW2 1QA,51.456114,-0.109283,20140610T130000,20140610T170000,30.0,Public Transport
Route Name,Route13
Time,499.0
Emissions,11.62667686409851
Distance,64.61968012432754
Cost,152.13333333333333

Visit Name,Location,x,y,windowStart,windowEnd,visitLength,Transport Mode
v106,NW10 9UL,51.544184,-0.24567,20140610T130000,20140610T170000,30.0,Car
v96,SW1P 4PX,51.489465,-0.130389,20140610T130000,20140610T170000,30.0,Car
v36,SE26 6HP,51.426178,-0.061956,20140610T130000,20140610T170000,30.0,Public Transport
v24,SE25 4TY,51.401113,-0.067804,20140610T130000,20140610T170000,30.0,Public Transport
v30,SE19 2QJ,51.411828,-0.084536,20140610T130000,20140610T170000,30.0,Public Transport
Returning to Car,SW1P 4PX,51.489465,-0.130389,20140610T090000,20140610T090000,0.0,Public Transport
Route Name,Route14
Time,511.5162254508747
Emissions,23.88278511441699
Distance,74.43478225693474
Cost,169.22887089501077

Visit Name,Location,x,y,windowStart,windowEnd,visitLength,Transport Mode
v93,NW6 2QT,51.546726,-0.199738,20140610T090000,20140610T130000,30.0,Car
v71,E6 6AQ,51.525592,0.063488,20140610T090000,20140610T130000,30.0,Car
v23,SE14 6EB,51.481142,-0.035014,20140610T090000,20140610T130000,30.0,Public Transport
v42,SE7 8NE,51.491891,0.035502,20140610T130000,20140610T170000,30.0,Public Transport
v4,SE1 1GE,51.503839,-0.092121,20140610T130000,20140610T170000,30.0,Public Transport
Returning to Car,E6 6AQ,51.525592,0.063488,20140610T090000,20140610T090000,0.0,Public Transport
Route Name,Route15
Time,621.8170143903913
Emissions,31.398216100713014
Distance,119.70447417849579
Cost,199.33379649609338

Visit Name,Location,x,y,windowStart,windowEnd,visitLength,Transport Mode
v81,IG11 0RJ,51.5312,0.120679,20140610T090000,20140610T130000,30.0,Car
v38,SE28 8LW,51.508975,0.117888,20140610T130000,20140610T170000,30.0,Car
v52,SE12 0JQ,51.441768,0.01871,20140610T130000,20140610T170000,30.0,Car
v18,SE12 9TZ,51.432583,0.027743,20140610T130000,20140610T170000,30.0,Public Transport
v108,SE13 6TZ,51.446221,-0.004004,20140610T130000,20140610T170000,30.0,Public Transport
Returning to Car,SE12 0JQ,51.441768,0.01871,20140610T090000,20140610T090000,0.0,Public Transport
Route Name,Route16
Time,541.0628502293662
Emissions,30.68702287238589
Distance,119.75370408893714
Cost,186.55025752892612

Visit Name,Location,x,y,windowStart,windowEnd,visitLength,Transport Mode
v78,E3 5AA,51.527185,-0.034503,20140610T130000,20140610T170000,30.0,Car
v29,SE9 2LL,51.446535,0.08289,20140610T090000,20140610T130000,30.0,Public Transport
v13,SE6 1ES,51.439774,-0.0104,20140610T090000,20140610T130000,30.0,Public Transport
v48,SE3 7DF,51.475516,0.022994,20140610T130000,20140610T170000,30.0,Public Transport
v12,SE9 5DL,51.450285,0.055917,20140610T130000,20140610T170000,30.0,Public Transport
v28,SE9 5QR,51.44146,0.050412,20140610T130000,20140610T170000,30.0,Public Transport
Returning to Car,E3 5AA,51.527185,-0.034503,20140610T090000,20140610T090000,0.0,Public Transport
Route Name,Route17
Time,691.0437240506322
Emissions,32.72702420434092
Distance,107.05089034911626
Cost,227.6890801568774

Visit Name,Location,x,y,windowStart,windowEnd,visitLength,Transport Mode
v68,SM5 4PB,51.350379,-0.170508,20140610T130000,20140610T170000,30.0,Car
v67,SW9 6LW,51.472675,-0.1124,20140610T090000,20140610T130000,30.0,Public Transport
v105,SM6 8SW,51.361415,-0.146037,20140610T090000,20140610T130000,30.0,Public Transport
v100,SW2 1LR,51.45674,-0.113504,20140610T130000,20140610T170000,30.0,Public Transport
v16,SE22 8AD,51.464181,-0.082748,20140610T130000,20140610T170000,30.0,Public Transport
v58,W1T 3QG,51.51701,-0.137794,20140610T130000,20140610T170000,30.0,Public Transport
Returning to Car,SM5 4PB,51.350379,-0.170508,20140610T090000,20140610T090000,0.0,Public Transport
Route Name,Route18
Time,869.1744980953551
Emissions,53.158009987653315
Distance,150.9372165948549
Cost,276.23236779265807

Visit Name,Location,x,y,windowStart,windowEnd,visitLength,Transport Mode
v99,SW2 2AD,51.450971,-0.121039,20140610T090000,20140610T130000,30.0,Car
v107,SW11 4LG,51.475275,-0.150842,20140610T090000,20140610T130000,30.0,Car
v95,SW1P 4BB,51.492146,-0.131072,20140610T090000,20140610T130000,30.0,Public Transport
v97,SW1V 1NP,51.492683,-0.144462,20140610T090000,20140610T130000,30.0,Public Transport
v59,W1J 8PD,51.507805,-0.144827,20140610T090000,20140610T130000,30.0,Public Transport
v109,W1S 2HU,51.512255,-0.141361,20140610T090000,20140610T130000,30.0,Public Transport
Returning to Car,SW11 4LG,51.475275,-0.150842,20140610T090000,20140610T090000,0.0,Public Transport
Route Name,Route19
Time,475.5604986965344
Emissions,23.815590013078882
Distance,66.56326891991588
Cost,156.20417454045614

Visit Name,Location,x,y,windowStart,windowEnd,visitLength,Transport Mode
v104,IG5 0RW,51.596486,0.060159,20140610T130000,20140610T170000,30.0,Car
v87,E18 2DB,51.584378,0.016379,20140610T090000,20140610T130000,30.0,Car
v89,E11 1DZ,51.569612,-0.003582,20140610T090000,20140610T130000,30.0,Public Transport
v83,SW17 0JZ,51.43594,-0.184673,20140610T090000,20140610T130000,30.0,Public Transport
v6,SE19 3NF,51.422435,-0.105294,20140610T130000,20140610T170000,30.0,Public Transport
v84,W1U 4ED,51.518776,-0.153376,20140610T130000,20140610T170000,30.0,Public Transport
Returning to Car,E18 2DB,51.584378,0.016379,20140610T090000,20140610T090000,0.0,Public Transport
Route Name,Route20
Time,711.8026326363159
Emissions,44.7037898660503
Distance,131.8391452734599
Cost,232.13287110849598

Visit Name,Location,x,y,windowStart,windowEnd,visitLength,Transport Mode
v63,W5 5JY,51.51279,-0.302995,20140610T090000,20140610T130000,30.0,Car
v51,SE4 1YB,51.465709,-0.026866,20140610T090000,20140610T130000,30.0,Car
v21,SE4 1QR,51.463509,-0.035628,20140610T090000,20140610T130000,30.0,Public Transport
v41,SE14 5TJ,51.469307,-0.046235,20140610T090000,20140610T130000,30.0,Public Transport
v7,SE22 8RP,51.457684,-0.077003,20140610T090000,20140610T130000,30.0,Public Transport
v64,SW1H 9HP,51.501001,-0.130911,20140610T130000,20140610T170000,30.0,Public Transport
v94,NW6 3AA,51.541873,-0.190584,20140610T130000,20140610T170000,30.0,Public Transport
Returning to Car,SE4 1YB,51.465709,-0.026866,20140610T090000,20140610T090000,0.0,Public Transport
Route Name,Route21
Time,620.8901398813882
Emissions,27.584549428768774
Distance,91.74358195050215
Cost,200.20469241319992

Visit Name,Location,x,y,windowStart,windowEnd,visitLength,Transport Mode
v85,W6 9RW,51.488684,-0.22657,20140610T090000,20140610T130000,30.0,Car
v9,SE19 3DX,51.414883,-0.094835,20140610T090000,20140610T130000,30.0,Car
v43,SE12 8SS,51.455336,0.012558,20140610T090000,20140610T130000,30.0,Public Transport
v77,BR1 1BQ,51.408139,0.015834,20140610T090000,20140610T130000,30.0,Public Transport
v26,SE12 9ET,51.44304,0.020551,20140610T130000,20140610T170000,30.0,Public Transport
v40,SE12 9QB,51.435783,0.026763,20140610T130000,20140610T170000,30.0,Public Transport
v110,SE12 8PB,51.454711,0.005953,20140610T130000,20140610T170000,30.0,Public Transport
Returning to Car,SE19 3DX,51.414883,-0.094835,20140610T090000,20140610T090000,0.0,Public Transport
Route Name,Route22
Time,731.8335027406549
Emissions,34.6780431929904
Distance,98.7137872301375
Cost,232.06324033162167

Visit Name,Location,x,y,windowStart,windowEnd,visitLength,Transport Mode
v101,EN2 0DY,51.666493,-0.080465,20140610T090000,20140610T130000,30.0,Car
v69,N13 4HP,51.616427,-0.121825,20140610T090000,20140610T130000,30.0,Car
v11,SE16 6AU,51.500401,-0.043407,20140610T090000,20140610T130000,30.0,Public Transport
v79,E3 5AT,51.527998,-0.035217,20140610T090000,20140610T130000,30.0,Public Transport
v90,E1 6NP,51.521656,-0.075247,20140610T130000,20140610T170000,30.0,Public Transport
v86,N1 9JJ,51.651933,-0.077091,20140610T130000,20140610T170000,30.0,Public Transport
v92,NW4 2JT,51.588442,-0.211572,20140610T130000,20140610T170000,30.0,Public Transport
Returning to Car,N13 4HP,51.616427,-0.121825,20140610T090000,20140610T090000,0.0,Public Transport
Route Name,Route23
Time,760.9179491811221
Emissions,36.76496383895702
Distance,120.91407757809435
Cost,250.24669696873215

Visit Name,Location,x,y,windowStart,windowEnd,visitLength,Transport Mode
v61,W5 5RN,51.50431,-0.304247,20140610T090000,20140610T130000,30.0,Car
v39,SE26 6BP,51.424959,-0.064942,20140610T090000,20140610T130000,30.0,Public Transport
v3,SE20 8LB,51.411851,-0.059126,20140610T090000,20140610T130000,30.0,Public Transport
v45,SE25 4DQ,51.403127,-0.072679,20140610T090000,20140610T130000,30.0,Public Transport
v46,SE21 8BX,51.431052,-0.089875,20140610T130000,20140610T170000,30.0,Public Transport
v44,SE23 3NA,51.445051,-0.052005,20140610T130000,20140610T170000,30.0,Public Transport
v54,SE6 3TJ,51.434954,-0.023113,20140610T130000,20140610T170000,30.0,Public Transport
Returning to Car,W5 5RN,51.50431,-0.304247,20140610T090000,20140610T090000,0.0,Public Transport
Route Name,Route24
Time,701.9102024085553
Emissions,35.17836294343901
Distance,92.22396723855597
Cost,226.98604098632075

