Depot Name,Location,x,y,commenceTime
DEPOT,SE13 7TW,51.465336,-0.021253,20140610T090000


Visit Name,Location,x,y,windowStart,windowEnd,visitLength,Transport Mode
v55,SE6 3TJ,51.434954,-0.023113,20140610T090000,20140610T100000,30.0,Public Transport
Route Name,Route0
Time,124.0
Emissions,1.4676109889451263
Distance,9.580137208360547
Cost,37.13333333333333

Visit Name,Location,x,y,windowStart,windowEnd,visitLength,Transport Mode
v45,SE13 6TZ,51.446221,-0.004004,20140610T100000,20140610T110000,30.0,Public Transport
Route Name,Route1
Time,100.0
Emissions,0.8962336751610018
Distance,6.8783438250003375
Cost,33.13333333333333

Visit Name,Location,x,y,windowStart,windowEnd,visitLength,Transport Mode
v37,SE12 9ET,51.44304,0.020551,20140610T150000,20140610T160000,15.0,Public Transport
Route Name,Route2
Time,106.0
Emissions,1.2395120983798689
Distance,9.452613763165756
Cost,32.46666666666667

Visit Name,Location,x,y,windowStart,windowEnd,visitLength,Transport Mode
v44,SE12 9TZ,51.432583,0.027743,20140610T120000,20140610T130000,60.0,Public Transport
Route Name,Route3
Time,159.0
Emissions,1.9648178462591555
Distance,13.140712555762828
Cost,48.8

Visit Name,Location,x,y,windowStart,windowEnd,visitLength,Transport Mode
v27,SE6 1ES,51.439774,-0.0104,20140610T120000,20140610T130000,45.0,Public Transport
Route Name,Route4
Time,138.0
Emissions,1.370002332263615
Distance,9.00623661827261
Cost,42.13333333333333

Visit Name,Location,x,y,windowStart,windowEnd,visitLength,Transport Mode
v26,SE23 3NN,51.44797,-0.049132,20140610T150000,20140610T160000,45.0,Public Transport
Route Name,Route5
Time,123.0
Emissions,0.40939746198596355
Distance,6.859759516029056
Cost,40.13333333333334

Visit Name,Location,x,y,windowStart,windowEnd,visitLength,Transport Mode
v6,SE12 0JQ,51.441768,0.01871,20140610T130000,20140610T140000,60.0,Public Transport
Route Name,Route6
Time,151.0
Emissions,1.393789391784403
Distance,9.297444583168282
Cost,47.133333333333326

Visit Name,Location,x,y,windowStart,windowEnd,visitLength,Transport Mode
v0,SE26 6HP,51.426178,-0.061956,20140610T100000,20140610T110000,45.0,Public Transport
Route Name,Route7
Time,155.0
Emissions,1.0977298304595022
Distance,12.32663054212209
Cost,45.46666666666667

Visit Name,Location,x,y,windowStart,windowEnd,visitLength,Transport Mode
v80,E11 1DZ,51.569612,-0.003582,20140610T090000,20140610T100000,60.0,Public Transport
v63,E6 9SN,51.532761,0.055219,20140610T100000,20140610T110000,60.0,Public Transport
Route Name,Route8
Time,372.0
Emissions,11.747043305346693
Distance,35.6028433406251
Cost,102.46666666666667

Visit Name,Location,x,y,windowStart,windowEnd,visitLength,Transport Mode
v65,SW2 1QA,51.456114,-0.109283,20140610T100000,20140610T110000,30.0,Public Transport
v60,SW11 4LG,51.475275,-0.150842,20140610T130000,20140610T140000,30.0,Public Transport
Route Name,Route9
Time,273.0
Emissions,4.2779393402418595
Distance,25.670183191977046
Cost,76.13333333333333

Visit Name,Location,x,y,windowStart,windowEnd,visitLength,Transport Mode
v91,SE22 8HA,51.454919,-0.076731,20140610T120000,20140610T130000,30.0,Public Transport
v87,SW1H 9EU,51.499117,-0.136824,20140610T110000,20140610T120000,30.0,Public Transport
Route Name,Route10
Time,262.0
Emissions,4.85867108755726
Distance,23.865329829919837
Cost,76.13333333333334

Visit Name,Location,x,y,windowStart,windowEnd,visitLength,Transport Mode
v66,NW6 3AA,51.541873,-0.190584,20140610T140000,20140610T150000,45.0,Public Transport
v30,NW10 9UL,51.544184,-0.24567,20140610T110000,20140610T120000,30.0,Public Transport
Route Name,Route11
Time,301.0
Emissions,11.040379280209185
Distance,42.329471099745206
Cost,80.46666666666667

Visit Name,Location,x,y,windowStart,windowEnd,visitLength,Transport Mode
v61,SE16 5QU,51.504227,-0.048517,20140610T120000,20140610T130000,15.0,Public Transport
v35,SW1V 1NP,51.492683,-0.144462,20140610T100000,20140610T110000,45.0,Public Transport
Route Name,Route12
Time,240.0
Emissions,3.9137676508107715
Distance,25.30256352806563
Cost,69.13333333333333

Visit Name,Location,x,y,windowStart,windowEnd,visitLength,Transport Mode
v98,SE28 8LW,51.508975,0.117888,20140610T100000,20140610T110000,60.0,Public Transport
v58,SE1 6TJ,51.494747,-0.098768,20140610T100000,20140610T110000,30.0,Public Transport
Route Name,Route13
Time,282.0
Emissions,15.540732225793185
Distance,39.379725384764434
Cost,87.46666666666665

Visit Name,Location,x,y,windowStart,windowEnd,visitLength,Transport Mode
v92,SE7 8NE,51.491891,0.035502,20140610T090000,20140610T100000,45.0,Public Transport
v59,SE25 4XL,51.399524,-0.07999,20140610T120000,20140610T130000,45.0,Public Transport
Route Name,Route14
Time,275.0
Emissions,10.244343262095436
Distance,34.193631423680834
Cost,87.8

Visit Name,Location,x,y,windowStart,windowEnd,visitLength,Transport Mode
v88,SE3 7DF,51.475516,0.022994,20140610T150000,20140610T160000,45.0,Public Transport
v56,SE2 0EF,51.498497,0.10445,20140610T140000,20140610T150000,45.0,Public Transport
Route Name,Route15
Time,256.0
Emissions,3.608502272216573
Distance,23.691996284546242
Cost,77.13333333333333

Visit Name,Location,x,y,windowStart,windowEnd,visitLength,Transport Mode
v82,SE20 8LB,51.411851,-0.059126,20140610T130000,20140610T140000,45.0,Public Transport
v49,SE19 3NF,51.422435,-0.105294,20140610T100000,20140610T110000,60.0,Public Transport
Route Name,Route16
Time,264.0
Emissions,3.486226385628089
Distance,23.052581081595797
Cost,79.46666666666667

Visit Name,Location,x,y,windowStart,windowEnd,visitLength,Transport Mode
v101,SE15 5SZ,51.475094,-0.066594,20140610T130000,20140610T140000,45.0,Public Transport
v36,SE11 6PT,51.492973,-0.115869,20140610T090000,20140610T100000,15.0,Public Transport
Route Name,Route17
Time,207.0
Emissions,2.7708824747287526
Distance,18.611496895679462
Cost,62.46666666666667

Visit Name,Location,x,y,windowStart,windowEnd,visitLength,Transport Mode
v104,SE12 8SS,51.455336,0.012558,20140610T110000,20140610T120000,30.0,Public Transport
v51,SE12 9QB,51.435783,0.026763,20140610T130000,20140610T140000,15.0,Public Transport
Route Name,Route18
Time,163.0
Emissions,1.6236142744648148
Distance,13.38589857534123
Cost,48.46666666666667

Visit Name,Location,x,y,windowStart,windowEnd,visitLength,Transport Mode
v74,SE25 4DQ,51.403127,-0.072679,20140610T140000,20140610T150000,45.0,Public Transport
v48,SE25 5PD,51.38934,-0.090176,20140610T140000,20140610T150000,45.0,Public Transport
Route Name,Route19
Time,233.0
Emissions,4.781997914337841
Distance,24.65415813374327
Cost,70.13333333333334

Visit Name,Location,x,y,windowStart,windowEnd,visitLength,Transport Mode
v79,SE22 8RP,51.457684,-0.077003,20140610T090000,20140610T100000,30.0,Public Transport
v43,W1J 5HQ,51.507122,-0.146599,20140610T130000,20140610T140000,45.0,Public Transport
Route Name,Route20
Time,228.0
Emissions,6.095468553868782
Distance,26.942292725423886
Cost,73.46666666666667

Visit Name,Location,x,y,windowStart,windowEnd,visitLength,Transport Mode
v68,SE24 0EF,51.454033,-0.104576,20140610T100000,20140610T110000,15.0,Public Transport
v42,SW12 8LH,51.445845,-0.159572,20140610T130000,20140610T140000,60.0,Public Transport
Route Name,Route21
Time,274.0
Emissions,5.338978419635908
Distance,27.481005461803413
Cost,78.8

Visit Name,Location,x,y,windowStart,windowEnd,visitLength,Transport Mode
v78,SM6 8SW,51.361415,-0.146037,20140610T150000,20140610T160000,60.0,Public Transport
v32,SE26 6BP,51.424959,-0.064942,20140610T100000,20140610T110000,45.0,Public Transport
Route Name,Route22
Time,361.0
Emissions,14.90529005482122
Distance,40.245923692041956
Cost,112.8

Visit Name,Location,x,y,windowStart,windowEnd,visitLength,Transport Mode
v97,E3 5AT,51.527998,-0.035217,20140610T100000,20140610T110000,45.0,Public Transport
v21,E6 6AQ,51.525592,0.063488,20140610T160000,20140610T170000,30.0,Public Transport
Route Name,Route23
Time,332.0
Emissions,9.177626832162062
Distance,33.467835600715496
Cost,86.8

Visit Name,Location,x,y,windowStart,windowEnd,visitLength,Transport Mode
v90,SW9 6LW,51.472675,-0.1124,20140610T090000,20140610T100000,30.0,Public Transport
v31,SW1P 4BB,51.492146,-0.131072,20140610T150000,20140610T160000,45.0,Public Transport
Route Name,Route24
Time,260.0
Emissions,4.360170570640709
Distance,21.714815368567614
Cost,75.8

Visit Name,Location,x,y,windowStart,windowEnd,visitLength,Transport Mode
v28,SE12 8PB,51.454711,0.005953,20140610T150000,20140610T160000,30.0,Public Transport
v105,SE12 8BP,51.451997,0.026286,20140610T150000,20140610T160000,60.0,Public Transport
Route Name,Route25
Time,182.0
Emissions,0.9061948419639665
Distance,8.699553254840511
Cost,59.46666666666667

Visit Name,Location,x,y,windowStart,windowEnd,visitLength,Transport Mode
v17,SE15 2UJ,51.475983,-0.062179,20140610T100000,20140610T110000,45.0,Public Transport
v10,SW1H 9HP,51.501001,-0.130911,20140610T120000,20140610T130000,45.0,Public Transport
Route Name,Route26
Time,250.0
Emissions,2.596145243556997
Distance,20.343972879895084
Cost,75.13333333333334

Visit Name,Location,x,y,windowStart,windowEnd,visitLength,Transport Mode
v20,SE8 4HZ,51.471391,-0.024115,20140610T160000,20140610T170000,45.0,Public Transport
v18,CR4 3QX,51.407037,-0.178255,20140610T150000,20140610T160000,15.0,Public Transport
Route Name,Route27
Time,253.0
Emissions,7.522068639305854
Distance,34.508518026680335
Cost,66.46666666666667

Visit Name,Location,x,y,windowStart,windowEnd,visitLength,Transport Mode
v95,SE15 4HA,51.463758,-0.0668,20140610T160000,20140610T170000,60.0,Car
v69,SW1P 4PX,51.489465,-0.130389,20140610T160000,20140610T170000,30.0,Car
Route Name,Route28
Time,144.01721815830615
Emissions,10.378463977099706
Distance,21.336801172531096
Cost,43.44741065455902

Visit Name,Location,x,y,windowStart,windowEnd,visitLength,Transport Mode
v108,SE9 5DL,51.450285,0.055917,20140610T150000,20140610T160000,60.0,Public Transport
v16,SE9 5QR,51.44146,0.050412,20140610T140000,20140610T150000,60.0,Public Transport
Route Name,Route29
Time,243.0
Emissions,2.0264424690935625
Distance,14.59625284521704
Cost,75.46666666666667

Visit Name,Location,x,y,windowStart,windowEnd,visitLength,Transport Mode
v46,W1U 4ED,51.518776,-0.153376,20140610T090000,20140610T100000,45.0,Public Transport
v2,W6 9RH,51.535984,-0.194754,20140610T140000,20140610T150000,30.0,Public Transport
Route Name,Route30
Time,321.0
Emissions,9.228380811286048
Distance,33.60683851246645
Cost,84.46666666666665

Visit Name,Location,x,y,windowStart,windowEnd,visitLength,Transport Mode
v93,SE15 4DA,51.462937,-0.077042,20140610T150000,20140610T160000,45.0,Public Transport
v14,E1 6NP,51.521656,-0.075247,20140610T120000,20140610T130000,60.0,Public Transport
Route Name,Route31
Time,304.0
Emissions,4.5092339437475975
Distance,23.037772539951312
Cost,90.46666666666667

Visit Name,Location,x,y,windowStart,windowEnd,visitLength,Transport Mode
v1,SE23 3NA,51.445051,-0.052005,20140610T100000,20140610T110000,15.0,Public Transport
v89,SE4 1QR,51.463509,-0.035628,20140610T100000,20140610T110000,30.0,Public Transport
Route Name,Route32
Time,136.0
Emissions,1.7088437998525432
Distance,8.091720210397673
Cost,50.133333333333326

Visit Name,Location,x,y,windowStart,windowEnd,visitLength,Transport Mode
v73,SE1 2SS,51.506106,-0.087199,20140610T130000,20140610T140000,30.0,Public Transport
v52,E3 5AA,51.527185,-0.034503,20140610T110000,20140610T120000,45.0,Public Transport
v72,SE17 3RD,51.487667,-0.104147,20140610T120000,20140610T130000,30.0,Public Transport
Route Name,Route33
Time,303.0
Emissions,6.411202263424014
Distance,29.445040793889923
Cost,94.46666666666667

Visit Name,Location,x,y,windowStart,windowEnd,visitLength,Transport Mode
v41,W5 5JY,51.51279,-0.302995,20140610T110000,20140610T120000,45.0,Car
v53,SE1 4QA,51.498117,-0.083716,20140610T100000,20140610T110000,45.0,Public Transport
Returning to Car,W5 5JY,51.51279,-0.302995,20140610T090000,20140610T090000,0.0,Public Transport
Route Name,Route34
Time,302.0
Emissions,16.779071293707908
Distance,40.113364195751636
Cost,83.46666666666667

Visit Name,Location,x,y,windowStart,windowEnd,visitLength,Transport Mode
v19,E18 2JF,51.593824,0.01827,20140610T090000,20140610T100000,30.0,Car
v33,W1J 8PD,51.507805,-0.144827,20140610T160000,20140610T170000,45.0,Public Transport
Returning to Car,E18 2JF,51.593824,0.01827,20140610T090000,20140610T090000,0.0,Public Transport
Route Name,Route35
Time,317.6379707969594
Emissions,26.6379748085453
Distance,76.10649506910902
Cost,97.34570307701816

Visit Name,Location,x,y,windowStart,windowEnd,visitLength,Transport Mode
v15,SM5 4PB,51.350379,-0.170508,20140610T090000,20140610T100000,60.0,Car
v38,BR1 1BQ,51.408139,0.015834,20140610T160000,20140610T170000,30.0,Public Transport
Returning to Car,SM5 4PB,51.350379,-0.170508,20140610T090000,20140610T090000,0.0,Public Transport
Route Name,Route36
Time,508.3930087270189
Emissions,28.639060479587158
Distance,78.22308327174646
Cost,141.70361731437836

Visit Name,Location,x,y,windowStart,windowEnd,visitLength,Transport Mode
v67,SE14 6EB,51.481142,-0.035014,20140610T140000,20140610T150000,30.0,Public Transport
v83,SE25 4TY,51.401113,-0.067804,20140610T150000,20140610T160000,45.0,Public Transport
v102,SE19 2QJ,51.411828,-0.084536,20140610T160000,20140610T170000,15.0,Public Transport
Route Name,Route37
Time,259.0
Emissions,3.832802627203817
Distance,26.763367628201635
Cost,77.46666666666665

Visit Name,Location,x,y,windowStart,windowEnd,visitLength,Transport Mode
v100,SE9 2LL,51.446535,0.08289,20140610T160000,20140610T170000,30.0,Car
v85,SE17 1TS,51.490383,-0.084199,20140610T150000,20140610T160000,15.0,Public Transport
Returning to Car,SE9 2LL,51.446535,0.08289,20140610T090000,20140610T090000,0.0,Public Transport
Route Name,Route38
Time,262.245375870046
Emissions,17.092668633746825
Distance,48.22682126810901
Cost,85.80461260269587

Visit Name,Location,x,y,windowStart,windowEnd,visitLength,Transport Mode
v22,E7 8DT,51.544112,0.034429,20140610T120000,20140610T130000,60.0,Car
v29,SW2 1LR,51.45674,-0.113504,20140610T120000,20140610T130000,30.0,Public Transport
Returning to Car,E7 8DT,51.544112,0.034429,20140610T090000,20140610T090000,0.0,Public Transport
Route Name,Route39
Time,368.1855995423375
Emissions,22.693185051750632
Distance,61.75234276231331
Cost,110.45299253264847

Visit Name,Location,x,y,windowStart,windowEnd,visitLength,Transport Mode
v4,SW17 0JZ,51.43594,-0.184673,20140610T090000,20140610T100000,15.0,Car
v64,N1 9JP,51.651933,-0.077091,20140610T140000,20140610T150000,60.0,Public Transport
Returning to Car,SW17 0JZ,51.43594,-0.184673,20140610T090000,20140610T090000,0.0,Public Transport
Route Name,Route40
Time,325.23577999643953
Emissions,21.41122124624306
Distance,89.04707317514902
Cost,95.41172525233503

Visit Name,Location,x,y,windowStart,windowEnd,visitLength,Transport Mode
v84,SE9 5TG,51.44948,0.050483,20140610T130000,20140610T140000,15.0,Car
v11,SE18 7BZ,51.490921,0.071372,20140610T100000,20140610T110000,60.0,Public Transport
Returning to Car,SE9 5TG,51.44948,0.050483,20140610T090000,20140610T090000,0.0,Public Transport
Route Name,Route41
Time,232.9172159120733
Emissions,7.425967130960915
Distance,23.226619441444633
Cost,75.10912073434922

Visit Name,Location,x,y,windowStart,windowEnd,visitLength,Transport Mode
v106,E7 0AF,51.55368,0.019868,20140610T120000,20140610T130000,60.0,Car
v23,SE16 7PF,51.496001,-0.039446,20140610T160000,20140610T170000,60.0,Public Transport
Returning to Car,E7 0AF,51.55368,0.019868,20140610T090000,20140610T090000,0.0,Public Transport
Route Name,Route42
Time,389.6597511379923
Emissions,23.836969459025163
Distance,51.04031322437638
Cost,115.80902162382985

Visit Name,Location,x,y,windowStart,windowEnd,visitLength,Transport Mode
v24,SE4 1YB,51.465709,-0.026866,20140610T140000,20140610T150000,15.0,Car
v12,SE22 8AD,51.464181,-0.082748,20140610T110000,20140610T120000,30.0,Public Transport
Returning to Car,SE4 1YB,51.465709,-0.026866,20140610T090000,20140610T090000,0.0,Public Transport
Route Name,Route43
Time,157.99609101938125
Emissions,5.644125819142084
Distance,12.290061642302614
Cost,60.73343869702998

Visit Name,Location,x,y,windowStart,windowEnd,visitLength,Transport Mode
v70,SW17 9AG,51.423335,-0.165208,20140610T100000,20140610T110000,60.0,Car
v9,W6 9RW,51.488684,-0.22657,20140610T100000,20140610T110000,60.0,Public Transport
Returning to Car,SW17 9AG,51.423335,-0.165208,20140610T090000,20140610T090000,0.0,Public Transport
Route Name,Route44
Time,399.00678073126517
Emissions,27.611507704915756
Distance,51.22178180002791
Cost,124.5732375626307

Visit Name,Location,x,y,windowStart,windowEnd,visitLength,Transport Mode
v107,NW6 2QT,51.546726,-0.199738,20140610T120000,20140610T130000,45.0,Car
v86,N1 9JJ,51.651933,-0.077091,20140610T110000,20140610T120000,60.0,Public Transport
Returning to Car,NW6 2QT,51.546726,-0.199738,20140610T090000,20140610T090000,0.0,Public Transport
Route Name,Route45
Time,332.8635465152388
Emissions,17.219838899323737
Distance,73.06302220748677
Cost,104.77968980207623

Visit Name,Location,x,y,windowStart,windowEnd,visitLength,Transport Mode
v47,IG11 0RJ,51.5312,0.120679,20140610T120000,20140610T130000,30.0,Car
v40,IG5 0RW,51.596486,0.060159,20140610T150000,20140610T160000,60.0,Car
v54,W1H 7JB,51.514839,-0.158666,20140610T160000,20140610T170000,30.0,Public Transport
Returning to Car,IG5 0RW,51.596486,0.060159,20140610T090000,20140610T090000,0.0,Public Transport
Route Name,Route46
Time,463.17820110301994
Emissions,38.265930371966405
Distance,95.30643859818879
Cost,141.48819944247566

Visit Name,Location,x,y,windowStart,windowEnd,visitLength,Transport Mode
v7,W3 7TB,51.558951,-0.19246,20140610T100000,20140610T110000,60.0,Car
v34,SW2 2AD,51.450971,-0.121039,20140610T090000,20140610T100000,45.0,Car
v5,SE19 3DX,51.414883,-0.094835,20140610T100000,20140610T110000,60.0,Public Transport
Returning to Car,SW2 2AD,51.450971,-0.121039,20140610T090000,20140610T090000,0.0,Public Transport
Route Name,Route47
Time,488.5033358817663
Emissions,22.145056682783686
Distance,56.32869569718271
Cost,162.1871099695101

Visit Name,Location,x,y,windowStart,windowEnd,visitLength,Transport Mode
v99,SE21 8BX,51.431052,-0.089875,20140610T150000,20140610T160000,15.0,Public Transport
v50,SE16 6AU,51.500401,-0.043407,20140610T120000,20140610T130000,45.0,Public Transport
v76,SW18 9SL,51.457384,-0.190862,20140610T130000,20140610T140000,60.0,Public Transport
v81,SE5 8PF,51.471194,-0.084326,20140610T160000,20140610T170000,60.0,Public Transport
Route Name,Route48
Time,516.0
Emissions,18.3643311095136
Distance,49.333701970576286
Cost,168.13333333333333

Visit Name,Location,x,y,windowStart,windowEnd,visitLength,Transport Mode
v75,IG11 0RD,51.529397,0.108902,20140610T100000,20140610T110000,30.0,Car
v25,EN2 0DY,51.666493,-0.080465,20140610T140000,20140610T150000,45.0,Car
v8,SE14 5TJ,51.469307,-0.046235,20140610T150000,20140610T160000,60.0,Public Transport
Returning to Car,EN2 0DY,51.666493,-0.080465,20140610T090000,20140610T090000,0.0,Public Transport
Route Name,Route49
Time,714.9882248368223
Emissions,49.067717056707345
Distance,124.00548245714901
Cost,213.5674935411928

Visit Name,Location,x,y,windowStart,windowEnd,visitLength,Transport Mode
v109,W5 5RN,51.50431,-0.304247,20140610T140000,20140610T150000,15.0,Car
v3,W1T 3QG,51.51701,-0.137794,20140610T140000,20140610T150000,15.0,Public Transport
v96,W2 1EB,51.566901,-0.209532,20140610T140000,20140610T150000,15.0,Public Transport
Returning to Car,W5 5RN,51.50431,-0.304247,20140610T090000,20140610T090000,0.0,Public Transport
Route Name,Route50
Time,311.814933293383
Emissions,26.449672435982297
Distance,84.88162906588701
Cost,98.23908997242907

Visit Name,Location,x,y,windowStart,windowEnd,visitLength,Transport Mode
v57,W3 7JU,51.508973,-0.250654,20140610T100000,20140610T110000,45.0,Car
v94,E18 2DB,51.584378,0.016379,20140610T120000,20140610T130000,60.0,Car
v77,NW4 2DH,51.586223,-0.221172,20140610T130000,20140610T140000,60.0,Car
v62,SE1 1GE,51.503839,-0.092121,20140610T150000,20140610T160000,60.0,Public Transport
Returning to Car,NW4 2DH,51.586223,-0.221172,20140610T090000,20140610T090000,0.0,Public Transport
Route Name,Route51
Time,594.689015664238
Emissions,43.34544179752071
Distance,121.55127725833947
Cost,202.08267335845338

Visit Name,Location,x,y,windowStart,windowEnd,visitLength,Transport Mode
v103,N13 4HP,51.616427,-0.121825,20140610T160000,20140610T170000,45.0,Car
v71,SE15 6TE,51.480644,-0.067814,20140610T100000,20140610T110000,45.0,Public Transport
v13,NW4 2JT,51.588442,-0.211572,20140610T120000,20140610T130000,60.0,Public Transport
v39,W1S 2HU,51.512255,-0.141361,20140610T140000,20140610T150000,15.0,Public Transport
Returning to Car,N13 4HP,51.616427,-0.121825,20140610T090000,20140610T090000,0.0,Public Transport
Route Name,Route52
Time,659.3045002170422
Emissions,43.619069197510974
Distance,112.86057348134403
Cost,201.00039445149622

