Visit,Sender,Receiver
v1,Auctioneer,Bidder-25
v2,Auctioneer,Bidder-28
v3,Auctioneer,Bidder-25
v4,Auctioneer,Bidder-27
v3,Bidder-25,Auctioneer
v5,Auctioneer,Bidder-25
v6,Auctioneer,Bidder-27
v7,Auctioneer,Bidder-26
v8,Auctioneer,Bidder-29
v9,Auctioneer,Bidder-3
v10,Auctioneer,Bidder-21
v11,Auctioneer,Bidder-22
v12,Auctioneer,Bidder-15
v13,Auctioneer,Bidder-24
v14,Auctioneer,Bidder-20
v15,Auctioneer,Bidder-23
v16,Auctioneer,Bidder-16
v17,Auctioneer,Bidder-14
v18,Auctioneer,Bidder-19
v19,Auctioneer,Bidder-17
v20,Auctioneer,Bidder-18
v21,Auctioneer,Bidder-16
v22,Auctioneer,Bidder-9
v23,Auctioneer,Bidder-10
v24,Auctioneer,Bidder-12
v25,Auctioneer,Bidder-8
v26,Auctioneer,Bidder-13
v27,Auctioneer,Bidder-11
v28,Auctioneer,Bidder-4
v29,Auctioneer,Bidder-6
v30,Auctioneer,Bidder-5
v31,Auctioneer,Bidder-7
v32,Auctioneer,Bidder-2
v33,Auctioneer,Bidder-1
v34,Auctioneer,Bidder-0
v35,Auctioneer,Bidder-17
v36,Auctioneer,Bidder-18
v37,Auctioneer,Bidder-1
v38,Auctioneer,Bidder-1
v39,Auctioneer,Bidder-5
v40,Auctioneer,Bidder-19
v41,Auctioneer,Bidder-12
v42,Auctioneer,Bidder-1
v43,Auctioneer,Bidder-6
v44,Auctioneer,Bidder-3
v20,Bidder-18,Auctioneer
v45,Auctioneer,Bidder-18
v46,Auctioneer,Bidder-21
v9,Bidder-3,Auctioneer
v47,Auctioneer,Bidder-3
v42,Bidder-1,Auctioneer
v48,Auctioneer,Bidder-1
v24,Bidder-12,Auctioneer
v49,Auctioneer,Bidder-12
v50,Auctioneer,Bidder-9
v51,Auctioneer,Bidder-18
v6,Bidder-27,Auctioneer
v52,Auctioneer,Bidder-27
v53,Auctioneer,Bidder-0
v49,Bidder-12,Auctioneer
v54,Auctioneer,Bidder-12
v55,Auctioneer,Bidder-20
v56,Auctioneer,Bidder-2
v55,Bidder-20,Auctioneer
v57,Auctioneer,Bidder-20
v14,Bidder-20,Auctioneer
v58,Auctioneer,Bidder-20
v59,Auctioneer,Bidder-20
v56,Bidder-2,Auctioneer
v60,Auctioneer,Bidder-2
v46,Bidder-21,Auctioneer
v3,Auctioneer,Bidder-21
v20,Auctioneer,Bidder-18
v20,Bidder-18,Auctioneer
v9,Auctioneer,Bidder-18
v42,Auctioneer,Bidder-13
v24,Auctioneer,Bidder-3
v6,Auctioneer,Bidder-26
v6,Bidder-26,Auctioneer
v49,Auctioneer,Bidder-26
v32,Bidder-2,Auctioneer
v55,Auctioneer,Bidder-2
v14,Auctioneer,Bidder-2
v56,Auctioneer,Bidder-29
v46,Auctioneer,Bidder-11
v56,Bidder-29,Auctioneer
v20,Auctioneer,Bidder-29
v6,Auctioneer,Bidder-23
v14,Bidder-2,Auctioneer
v32,Auctioneer,Bidder-2
v56,Auctioneer,Bidder-29
v56,Bidder-29,Auctioneer
v14,Auctioneer,Bidder-29
v56,Auctioneer,Bidder-14
