Visit,Sender,Receiver
v1,Auctioneer,Bidder-18
v2,Auctioneer,Bidder-17
v3,Auctioneer,Bidder-19
v4,Auctioneer,Bidder-16
v5,Auctioneer,Bidder-14
v6,Auctioneer,Bidder-13
v7,Auctioneer,Bidder-12
v8,Auctioneer,Bidder-11
v9,Auctioneer,Bidder-15
v10,Auctioneer,Bidder-10
v11,Auctioneer,Bidder-5
v12,Auctioneer,Bidder-4
v13,Auctioneer,Bidder-8
v14,Auctioneer,Bidder-6
v15,Auctioneer,Bidder-9
v16,Auctioneer,Bidder-7
v17,Auctioneer,Bidder-0
v18,Auctioneer,Bidder-3
v19,Auctioneer,Bidder-1
v20,Auctioneer,Bidder-2
v21,Auctioneer,Bidder-7
v22,Auctioneer,Bidder-15
v23,Auctioneer,Bidder-9
v24,Auctioneer,Bidder-5
v25,Auctioneer,Bidder-13
v24,Bidder-5,Auctioneer
v26,Auctioneer,Bidder-5
v27,Auctioneer,Bidder-18
v28,Auctioneer,Bidder-15
v29,Auctioneer,Bidder-18
v30,Auctioneer,Bidder-18
v31,Auctioneer,Bidder-18
v32,Auctioneer,Bidder-18
v32,Bidder-18,Auctioneer
v33,Auctioneer,Bidder-18
v34,Auctioneer,Bidder-18
v35,Auctioneer,Bidder-18
v36,Auctioneer,Bidder-10
v37,Auctioneer,Bidder-11
v38,Auctioneer,Bidder-3
v39,Auctioneer,Bidder-3
v8,Bidder-11,Auctioneer
v40,Auctioneer,Bidder-11
v41,Auctioneer,Bidder-11
v42,Auctioneer,Bidder-1
v42,Bidder-1,Auctioneer
v43,Auctioneer,Bidder-1
v44,Auctioneer,Bidder-13
v44,Bidder-13,Auctioneer
v45,Auctioneer,Bidder-13
v46,Auctioneer,Bidder-14
v47,Auctioneer,Bidder-16
v48,Auctioneer,Bidder-4
v5,Bidder-14,Auctioneer
v49,Auctioneer,Bidder-14
v50,Auctioneer,Bidder-9
v41,Bidder-11,Auctioneer
v51,Auctioneer,Bidder-11
v52,Auctioneer,Bidder-17
v51,Bidder-11,Auctioneer
v53,Auctioneer,Bidder-11
v54,Auctioneer,Bidder-11
v54,Bidder-11,Auctioneer
v55,Auctioneer,Bidder-11
v56,Auctioneer,Bidder-11
v57,Auctioneer,Bidder-2
v20,Bidder-2,Auctioneer
v58,Auctioneer,Bidder-2
v59,Auctioneer,Bidder-2
v60,Auctioneer,Bidder-2
v61,Auctioneer,Bidder-19
v62,Auctioneer,Bidder-19
v63,Auctioneer,Bidder-0
v64,Auctioneer,Bidder-6
v62,Bidder-19,Auctioneer
v24,Auctioneer,Bidder-19
v47,Bidder-16,Auctioneer
v32,Auctioneer,Bidder-16
v35,Bidder-18,Auctioneer
v8,Auctioneer,Bidder-18
v42,Auctioneer,Bidder-12
v44,Auctioneer,Bidder-12
v44,Bidder-12,Auctioneer
v5,Auctioneer,Bidder-12
v41,Auctioneer,Bidder-4
v56,Bidder-11,Auctioneer
v51,Auctioneer,Bidder-11
v41,Bidder-4,Auctioneer
v54,Auctioneer,Bidder-4
v42,Bidder-12,Auctioneer
v20,Auctioneer,Bidder-12
v62,Auctioneer,Bidder-4
v62,Bidder-4,Auctioneer
v47,Auctioneer,Bidder-4
v43,Bidder-1,Auctioneer
v35,Auctioneer,Bidder-1
v44,Auctioneer,Bidder-12
v63,Bidder-0,Auctioneer
v56,Auctioneer,Bidder-0
v41,Auctioneer,Bidder-0
v42,Auctioneer,Bidder-0
v62,Auctioneer,Bidder-1
v44,Bidder-12,Auctioneer
v43,Auctioneer,Bidder-12
v63,Auctioneer,Bidder-12
v44,Auctioneer,Bidder-8
